6B,1GN,6B,1GN,6B,1GN,6B,1GN
,,,,,,,
,,2GN,,,2GN,,
1B,,,3BN,3BN,,,1B
,,,,,,,
,2GN,,5G,4B,,2GN,
,,,0B,0B,,,
3GN,,,,,,,3GN
,3GN,,,,,3GN,
0G,,3GN,1B,1B,3GN,,0G
0G,0G,,1B,1B,,0G,0G
0G,0G,3GN,0B,0B,3GN,0G,0G
0G,2G,,0B,0B,,2G,0G
0R,0R,0R,0R,0R,0R,0R,0R
4R,0R,0R,0R,0R,0R,0R,4R
0R,0R,0R,0R,0R,0R,0R,0R
